Laboratorio de Circuitos Digitais/Aulas/Display/simulation/qsim/displaysete.msim.vcd
$comment
	File created using the following command:
		vcd file displaysete.msim.vcd -direction
$end
$date
	Wed Aug 22 17:29:54 2018
$end
$version
	ModelSim Version 10.5b
$end
$timescale
	1ps
$end

$scope module displaysete_vlg_vec_tst $end
$var reg 1 ! w $end
$var reg 1 " X $end
$var reg 1 # Y $end
$var reg 1 $ Z $end
$var wire 1 % a $end
$var wire 1 & b $end
$var wire 1 ' c $end
$var wire 1 ( d $end
$var wire 1 ) e $end
$var wire 1 * f $end
$var wire 1 + g $end

$scope module i1 $end
$var wire 1 , gnd $end
$var wire 1 - vcc $end
$var wire 1 . unknown $end
$var tri1 1 / devclrn $end
$var tri1 1 0 devpor $end
$var tri1 1 1 devoe $end
$var wire 1 2 a~output_o $end
$var wire 1 3 b~output_o $end
$var wire 1 4 c~output_o $end
$var wire 1 5 d~output_o $end
$var wire 1 6 e~output_o $end
$var wire 1 7 f~output_o $end
$var wire 1 8 g~output_o $end
$var wire 1 9 Z~input_o $end
$var wire 1 : X~input_o $end
$var wire 1 ; Y~input_o $end
$var wire 1 < w~input_o $end
$var wire 1 = inst~0_combout $end
$var wire 1 > inst10~0_combout $end
$var wire 1 ? inst15~0_combout $end
$var wire 1 @ inst19~0_combout $end
$var wire 1 A inst25~0_combout $end
$var wire 1 B inst28~0_combout $end
$var wire 1 C inst33~0_combout $end
$upscope $end
$upscope $end
$enddefinitions $end
#0
$dumpvars
0!
0"
0#
0$
1%
1&
1'
1(
1)
1*
0+
0,
1-
x.
1/
10
11
12
13
14
15
16
17
08
09
0:
0;
0<
0=
1>
1?
1@
0A
1B
0C
$end
#60000
1$
19
1A
1=
0B
0@
05
07
02
06
0)
0%
0*
0(
#120000
1#
0$
1;
09
0A
0=
1C
1@
0?
04
15
18
12
16
1)
1%
1+
1(
0'
#180000
1$
19
1A
1?
14
06
0)
1'
#240000
1"
0#
0$
1:
0;
09
1=
1B
0@
05
17
02
0%
1*
0(
#300000
1$
19
0=
1@
0>
03
15
12
1%
1(
0&
#360000
1#
0$
1;
09
0A
16
1)
#420000
1$
19
1A
0C
0B
0@
1>
13
05
07
08
06
0)
0+
0*
0(
1&
#480000
1!
0"
0#
0$
1<
0:
0;
09
0A
1C
1B
1@
15
17
18
16
1)
1+
1*
1(
#540000
1$
19
1A
06
0)
#600000
1#
0$
1;
09
1=
0C
0B
0@
0?
0>
03
04
05
07
08
02
0%
0+
0*
0(
0'
0&
#660000
1$
19
#720000
1"
0#
0$
1:
0;
09
#780000
1$
19
#840000
1#
0$
1;
09
#900000
1$
19
#960000
0!
0"
0#
0$
0<
0:
0;
09
0A
0=
1B
1@
1?
1>
13
14
15
17
12
16
1)
1%
1*
1(
1'
1&
